
/api/companies/minimal
List minimal companies for selectors
Returns a paginated list of active companies with minimal information (id, code, name, logo). Public endpoint without authentication required.

Parameters
Try it out
Name	Description
search
string
(query)
Filter companies by name (case-insensitive search)

search
per_page
integer
(query)
Number of items per page

Default value : 50

50
page
integer
(query)
Page number for pagination

Default value : 1

1
Responses
Code	Description	Links
200	
Minimal company list with pagination

Media type

application/json
Controls Accept header.
Example Value
Schema
{
  "data": [
    {
      "id": "550e8400-e29b-41d4-a716-446655440000",
      "company_code": "CMP-2025-00001",
      "name": "Acme Corporation",
      "logo_url": "https://example.com/logo.png"
    }
  ],
  "meta": {
    "total": 150,
    "current_page": 1,
    "last_page": 3,
    "per_page": 50
  },
  "links": {
    "first": "string",
    "last": "string",
    "prev": "string",
    "next": "string"
  }
}
No links

GET
/api/companies/explore
Explore companies with filters

Returns paginated list of companies with extended information for exploration. Includes follow indicators specific to authenticated user. Requires JWT authentication.

Parameters
Try it out
Name	Description
search
string
(query)
Search companies by name

search
industry_id
string($uuid)
(query)
Filter by industry UUID

industry_id
country
string
(query)
Filter by country

country
followed_by_me
boolean
(query)
Show only companies followed by the user

Default value : false


false
sort_by
string
(query)
Field to sort results by

sort_by
sort_direction
string
(query)
Sort direction

Available values : asc, desc


--
per_page
integer
(query)
Number of items per page

Default value : 20

20
page
integer
(query)
Page number for pagination

Default value : 1

1
Responses
Code	Description	Links
200	
Company list with extended information

Media type

application/json
Controls Accept header.
Example Value
Schema
{
  "data": [
    {
      "id": "3fa85f64-5717-4562-b3fc-2c963f66afa6",
      "company_code": "string",
      "name": "string",
      "logo_url": "string",
      "website": "string",
      "contact_country": "string",
      "industry_id": "3fa85f64-5717-4562-b3fc-2c963f66afa6",
      "industry": {
        "id": "3fa85f64-5717-4562-b3fc-2c963f66afa6",
        "code": "string",
        "name": "string"
      },
      "followers_count": 0,
      "is_followed_by_me": true
    }
  ],
  "meta": {
    "total": 0,
    "current_page": 0,
    "last_page": 0,
    "per_page": 0
  },
  "links": {
    "first": "string",
    "last": "string",
    "prev": "string",
    "next": "string"
  }
}
No links
401	
Unauthenticated (invalid or missing JWT token)

Media type

application/json
Example Value
Schema
{
  "message": "Unauthenticated."
}
No links

GET
/api/companies
List all companies (admin)


POST
/api/companies
Create new company


GET
/api/companies/{company}
View complete company details


PATCH
/api/companies/{company}
Update company

Company Followers
Company Followers



GET
/api/companies/followed
List companies followed by authenticated user

Returns all companies that the authenticated user is following, ordered by most recent follow first. Includes company details and user-specific metrics like ticket count.

Parameters
Try it out
Name	Description
page
integer
(query)
Page number for pagination

page
per_page
integer
(query)
Number of items per page

per_page
Responses
Code	Description	Links
200	
List of companies followed by the authenticated user

Media type

application/json
Controls Accept header.
Example Value
Schema
{
  "data": [
    {
      "id": "3fa85f64-5717-4562-b3fc-2c963f66afa6",
      "company": {
        "id": "3fa85f64-5717-4562-b3fc-2c963f66afa6",
        "companyCode": "string",
        "name": "string",
        "logoUrl": "string"
      },
      "followedAt": "2025-11-22T19:07:18.192Z",
      "myTicketsCount": 0,
      "lastTicketCreatedAt": "2025-11-22T19:07:18.192Z",
      "hasUnreadAnnouncements": true
    }
  ]
}
No links
401	
Unauthenticated

No links

GET
/api/companies/{company}/is-following
Check if user follows a company

Verifies if the authenticated user is currently following the specified company.

Parameters
Try it out
Name	Description
company *
string($uuid)
(path)
Company UUID or identifier

company
Responses
Code	Description	Links
200	
Follow status retrieved successfully

Media type

application/json
Controls Accept header.
Example Value
Schema
{
  "success": true,
  "data": {
    "isFollowing": true
  }
}
No links
401	
Unauthenticated

No links
404	
Company not found

No links

POST
/api/companies/{company}/follow
Follow a company

Allows the authenticated user to start following a company. If already following, returns current follow status. Rate limited to 20 requests per hour.

Parameters
Try it out
Name	Description
company *
string($uuid)
(path)
Company UUID or identifier

company
Responses
Code	Description	Links
200	
Already following the company

Media type

application/json
Controls Accept header.
Example Value
Schema
{
  "success": true,
  "message": "string",
  "company": {
    "id": "3fa85f64-5717-4562-b3fc-2c963f66afa6",
    "companyCode": "string",
    "name": "string",
    "logoUrl": "string"
  },
  "followedAt": "2025-11-22T19:07:18.195Z"
}
No links
201	
Successfully started following the company

Media type

application/json
Example Value
Schema
{
  "success": true,
  "message": "string",
  "company": {
    "id": "3fa85f64-5717-4562-b3fc-2c963f66afa6",
    "companyCode": "string",
    "name": "string",
    "logoUrl": "string"
  },
  "followedAt": "2025-11-22T19:07:18.196Z"
}
No links
401	
Unauthenticated

No links
404	
Company not found

No links
409	
Already following this company

No links
429	
Too many follow requests (rate limit exceeded)

No links

DELETE
/api/companies/{company}/unfollow
Unfollow a company

Allows the authenticated user to stop following a company. Returns an error if the user is not currently following the company.

Parameters
Try it out
Name	Description
company *
string($uuid)
(path)
Company UUID or identifier

company
Responses
Code	Description	Links
200	
Successfully unfollowed the company

Media type

application/json
Controls Accept header.
Example Value
Schema
{
  "success": true,
  "message": "string"
}
No links
401	
Unauthenticated

No links
404	
Company not found

No links
409	
User is not following this company

No links
Company Industries
Company Industries


Company Requests - Admin
Company Requests - Admin


Company Requests
Company Requests


Alert Announcements
Alert Announcements


Announcement Actions
Announcement Actions


Announcements
Announcements



GET
/api/announcements
List announcements with role-based visibility

Returns paginated list of announcements with role-based visibility. PLATFORM_ADMIN sees all from all companies. COMPANY_ADMIN sees all states from their company. AGENT/USER see only PUBLISHED from followed companies.

Parameters
Try it out
Name	Description
status
string
(query)
Filter by announcement status

Available values : draft, scheduled, published, archived


--
type
string
(query)
Filter by announcement type

Available values : MAINTENANCE, INCIDENT, NEWS, ALERT


--
search
string
(query)
Search in title and content (max 100 chars)

search
sort
string
(query)
Sort field and direction (default: -published_at)

Available values : -published_at, -created_at, title

Default value : -published_at


-published_at
published_after
string($date)
(query)
Filter announcements published after this date

published_after
published_before
string($date)
(query)
Filter announcements published before this date

published_before
company_id
string($uuid)
(query)
Filter by company (UUID, only for PLATFORM_ADMIN)

company_id
page
integer
(query)
Page number (default: 1)

Default value : 1

1
per_page
integer
(query)
Items per page (default: 20, max: 100)

Default value : 20

20
Responses
Code	Description	Links
200	
Announcements list with pagination

Media type

application/json
Controls Accept header.
Example Value
Schema
{
  "success": true,
  "data": [
    {}
  ],
  "meta": {}
}
No links
401	
Unauthenticated (missing or invalid JWT token)

Media type

application/json
Example Value
Schema
{
  "message": "Unauthenticated"
}
No links
403	
Forbidden (insufficient permissions)

Media type

application/json
Example Value
Schema
{
  "message": "Insufficient permissions"
}
No links

GET
/api/announcements/{announcement}
Get announcement by ID

Returns a single announcement by ID with role-based visibility. PLATFORM_ADMIN can view any announcement. COMPANY_ADMIN can view any announcement from their company. AGENT/USER can only view PUBLISHED announcements from followed companies.

Parameters
Try it out
Name	Description
announcement *
string($uuid)
(path)
The announcement ID (UUID)

announcement
Responses
Code	Description	Links
200	
Announcement retrieved successfully

Media type

application/json
Controls Accept header.
Example Value
Schema
{
  "success": true,
  "data": {}
}
No links
401	
Unauthenticated (missing or invalid JWT token)

Media type

application/json
Example Value
Schema
{
  "message": "Unauthorized or invalid JWT"
}
No links
403	
Forbidden (insufficient permissions - user role or company mismatch)

Media type

application/json
Example Value
Schema
{
  "message": "Insufficient permissions"
}
No links
404	
Announcement not found

Media type

application/json
Example Value
Schema
{
  "success": false,
  "message": "Announcement not found",
  "code": "NOT_FOUND",
  "category": "resource"
}
No links

PUT
/api/announcements/{announcement}
Update announcement


DELETE
/api/announcements/{announcement}
Delete announcement


GET
/api/announcements/schemas
Get announcement type schemas
Returns the metadata schema structure for each announcement type. Only COMPANY_ADMIN and PLATFORM_ADMIN can access this endpoint. Used by frontend to dynamically build forms.

Parameters
Cancel
No parameters

Execute
Clear
Responses
Curl

curl -X 'GET' \
  'http://localhost:8000/api/announcements/schemas' \
  -H 'accept: application/json' \
  -H 'X-CSRF-TOKEN: '
Request URL
http://localhost:8000/api/announcements/schemas
Server response
Code	Details
401	
Error: Unauthorized

Response body
Download
{
  "success": false,
  "message": "Unauthenticated.",
  "code": "UNAUTHENTICATED",
  "category": "authentication",
  "debug": {
    "timestamp": "2025-11-22T19:06:16+00:00",
    "environment": "local",
    "file": "/var/www/app/Shared/Exceptions/AuthenticationException.php",
    "line": 66,
    "trace": [
      {
        "function": "unauthenticated",
        "file": "/var/www/app/Http/Middleware/JWT/RequireJWTAuthentication.php",
        "line": 57,
        "class": "App\\Shared\\Exceptions\\AuthenticationException"
      },
      {
        "function": "handle",
        "file": "/var/www/vendor/laravel/framework/src/Illuminate/Pipeline/Pipeline.php",
        "line": 219,
        "class": "App\\Http\\Middleware\\JWT\\RequireJWTAuthentication"
      },
      {
        "function": "{closure:{closure:Illuminate\\Pipeline\\Pipeline::carry():194}:195}",
        "file": "/var/www/vendor/laravel/framework/src/Illuminate/Routing/Middleware/SubstituteBindings.php",
        "line": 50,
        "class": "Illuminate\\Pipeline\\Pipeline"
      },
      {
        "function": "handle",
        "file": "/var/www/vendor/laravel/framework/src/Illuminate/Pipeline/Pipeline.php",
        "line": 219,
        "class": "Illuminate\\Routing\\Middleware\\SubstituteBindings"
      },
      {
        "function": "{closure:{closure:Illuminate\\Pipeline\\Pipeline::carry():194}:195}",
        "file": "/var/www/vendor/laravel/framework/src/Illuminate/Cookie/Middleware/AddQueuedCookiesToResponse.php",
        "line": 36,
        "class": "Illuminate\\Pipeline\\Pipeline"
      },
      {
        "function": "handle",
        "file": "/var/www/vendor/laravel/framework/src/Illuminate/Pipeline/Pipeline.php",
        "line": 219,
        "class": "Illuminate\\Cookie\\Middleware\\AddQueuedCookiesToResponse"
      },
      {
        "function": "{closure:{closure:Illuminate\\Pipeline\\Pipeline::carry():194}:195}",
        "file": "/var/www/vendor/laravel/framework/src/Illuminate/Cookie/Middleware/EncryptCookies.php",
        "line": 74,
        "class": "Illuminate\\Pipeline\\Pipeline"
      },
      {
        "function": "handle",
        "file": "/var/www/vendor/laravel/framework/src/Illuminate/Pipeline/Pipeline.php",
        "line": 219,
        "class": "Illuminate\\Cookie\\Middleware\\EncryptCookies"
      },
      {
        "function": "{closure:{closure:Illuminate\\Pipeline\\Pipeline::carry():194}:195}",
        "file": "/var/www/vendor/laravel/framework/src/Illuminate/Pipeline/Pipeline.php",
        "line": 137,
        "class": "Illuminate\\Pipeline\\Pipeline"
      },
      {
        "function": "then",
        "file": "/var/www/vendor/laravel/framework/src/Illuminate/Routing/Router.php",
        "line": 821,
        "class": "Illuminate\\Pipeline\\Pipeline"
      },
      {
        "function": "runRouteWithinStack",
        "file": "/var/www/vendor/laravel/framework/src/Illuminate/Routing/Router.php",
        "line": 800,
        "class": "Illuminate\\Routing\\Router"
      },
      {
        "function": "runRoute",
        "file": "/var/www/vendor/laravel/framework/src/Illuminate/Routing/Router.php",
        "line": 764,
        "class": "Illuminate\\Routing\\Router"
      },
      {
        "function": "dispatchToRoute",
        "file": "/var/www/vendor/laravel/framework/src/Illuminate/Routing/Router.php",
        "line": 753,
        "class": "Illuminate\\Routing\\Router"
      },
      {
        "function": "dispatch",
        "file": "/var/www/vendor/laravel/framework/src/Illuminate/Foundation/Http/Kernel.php",
        "line": 200,
        "class": "Illuminate\\Routing\\Router"
      },
      {
        "function": "{closure:Illuminate\\Foundation\\Http\\Kernel::dispatchToRouter():197}",
        "file": "/var/www/vendor/laravel/framework/src/Illuminate/Pipeline/Pipeline.php",
        "line": 180,
        "class": "Illuminate\\Foundation\\Http\\Kernel"
      },
      {
        "function": "{closure:Illuminate\\Pipeline\\Pipeline::prepareDestination():178}",
        "file": "/var/www/vendor/laravel/framework/src/Illuminate/Http/Middleware/HandleCors.php",
        "line": 61,
        "class": "Illuminate\\Pipeline\\Pipeline"
      },
      {
        "function": "handle",
        "file": "/var/www/vendor/laravel/framework/src/Illuminate/Pipeline/Pipeline.php",
        "line": 219,
        "class": "Illuminate\\Http\\Middleware\\HandleCors"
      },
      {
        "function": "{closure:{closure:Illuminate\\Pipeline\\Pipeline::carry():194}:195}",
        "file": "/var/www/vendor/laravel/framework/src/Illuminate/Foundation/Http/Middleware/TransformsRequest.php",
        "line": 21,
        "class": "Illuminate\\Pipeline\\Pipeline"
      },
      {
        "function": "handle",
        "file": "/var/www/vendor/laravel/framework/src/Illuminate/Foundation/Http/Middleware/TrimStrings.php",
        "line": 51,
        "class": "Illuminate\\Foundation\\Http\\Middleware\\TransformsRequest"
      },
      {
        "function": "handle",
        "file": "/var/www/vendor/laravel/framework/src/Illuminate/Pipeline/Pipeline.php",
        "line": 219,
        "class": "Illuminate\\Foundation\\Http\\Middleware\\TrimStrings"
      },
      {
        "function": "{closure:{closure:Illuminate\\Pipeline\\Pipeline::carry():194}:195}",
        "file": "/var/www/vendor/laravel/framework/src/Illuminate/Pipeline/Pipeline.php",
        "line": 137,
        "class": "Illuminate\\Pipeline\\Pipeline"
      },
      {
        "function": "then",
        "file": "/var/www/vendor/laravel/framework/src/Illuminate/Foundation/Http/Kernel.php",
        "line": 175,
        "class": "Illuminate\\Pipeline\\Pipeline"
      },
      {
        "function": "sendRequestThroughRouter",
        "file": "/var/www/vendor/laravel/framework/src/Illuminate/Foundation/Http/Kernel.php",
        "line": 144,
        "class": "Illuminate\\Foundation\\Http\\Kernel"
      },
      {
        "function": "handle",
        "file": "/var/www/vendor/laravel/framework/src/Illuminate/Foundation/Application.php",
        "line": 1220,
        "class": "Illuminate\\Foundation\\Http\\Kernel"
      },
      {
        "function": "handleRequest",
        "file": "/var/www/public/index.php",
        "line": 20,
        "class": "Illuminate\\Foundation\\Application"
      }
    ]
  }
}
Response headers
 access-control-allow-origin: * 
 cache-control: no-cache,private 
 connection: keep-alive 
 content-security-policy: default-src 'self' http: https: ws: wss: data: blob: 'unsafe-inline' 'unsafe-eval' 
 content-type: application/json 
 date: Sat,22 Nov 2025 19:06:16 GMT 
 referrer-policy: no-referrer-when-downgrade 
 server: nginx/1.29.3 
 transfer-encoding: chunked 
 x-content-type-options: nosniff 
 x-frame-options: SAMEORIGIN 
 x-powered-by: PHP/8.4.14 
 x-xss-protection: 1; mode=block 
Responses
Code	Description	Links
200	
Schemas for all announcement types (MAINTENANCE, INCIDENT, NEWS, ALERT)

Media type

application/json
Controls Accept header.
Example Value
Schema
{
  "success": true,
  "data": {}
}
No links
401	
Unauthenticated (missing or invalid JWT token)

Media type

application/json
Example Value
Schema
{
  "message": "Unauthenticated"
}
No links
403	
Forbidden (insufficient permissions - requires COMPANY_ADMIN or PLATFORM_ADMIN)

Media type

application/json
Example Value
Schema
{
  "message": "Insufficient permissions"
}
No links
Help Center: Articles
Help Center: Articles


Help Center: Categories
Help Center: Categories


Incident Announcements
Incident Announcements


Maintenance Announcements
Maintenance Announcements


News Announcements
News Announcements


Ticket Categories
Ticket Categories


Ticket Actions
Ticket Actions


Ticket Attachments
Ticket Attachments


Tickets
Tickets



GET
/api/tickets
List tickets with role-based visibility

Returns paginated list of tickets with role-based filtering. USER sees only their own tickets. AGENT sees all tickets from their company. COMPANY_ADMIN sees all tickets from their company. Supports multiple filters, search, sorting, and pagination.

Parameters
Try it out
Name	Description
status
string
(query)
Filter by ticket status

Available values : open, pending, resolved, closed


--
category_id
string($uuid)
(query)
Filter by category UUID

category_id
owner_agent_id
string
(query)
Filter by assigned agent UUID. Use "null" for unassigned tickets, "me" for tickets assigned to authenticated user

550e8400-e29b-41d4-a716-446655440000
created_by_user_id
string($uuid)
(query)
Filter by creator user UUID

created_by_user_id
last_response_author_type
string
(query)
Filter by last response author type

Available values : none, user, agent


--
search
string
(query)
Search in ticket title and description (case-insensitive)

search
created_from
string($date)
(query)
Filter tickets created after this date (inclusive)

created_from
created_to
string($date)
(query)
Filter tickets created before this date (inclusive)

created_to
created_after
string($date)
(query)
Alternative to created_from (same behavior)

created_after
created_before
string($date)
(query)
Alternative to created_to (same behavior)

created_before
sort_by
string
(query)
Field to sort by

Available values : created_at, updated_at, title, status

Default value : created_at


created_at
sort_order
string
(query)
Sort direction

Available values : asc, desc

Default value : desc


desc
sort
string
(query)
Shorthand for sort_by (defaults to ascending). If provided without sort_order, will use "asc"

created_at
per_page
integer
(query)
Number of items per page

Default value : 15

15
page
integer
(query)
Page number for pagination

Default value : 1

1
Responses
Code	Description	Links
200	
Tickets list with pagination

Media type

application/json
Controls Accept header.
Example Value
Schema
{
  "data": [
    {
      "id": "7c9e6679-7425-40de-944b-e07fc1f90ae7",
      "ticket_code": "TKT-2025-00001",
      "title": "Error al exportar reporte mensual",
      "status": "open",
      "last_response_author_type": "none",
      "company_id": "3fa85f64-5717-4562-b3fc-2c963f66afa6",
      "category_id": "3fa85f64-5717-4562-b3fc-2c963f66afa6",
      "created_by_user_id": "3fa85f64-5717-4562-b3fc-2c963f66afa6",
      "owner_agent_id": "3fa85f64-5717-4562-b3fc-2c963f66afa6",
      "creator_name": "Juan Pérez",
      "owner_agent_name": "María García",
      "category_name": "Problemas Técnicos",
      "created_by_user": {
        "id": "3fa85f64-5717-4562-b3fc-2c963f66afa6",
        "name": "string",
        "email": "user@example.com"
      },
      "owner_agent": {
        "id": "3fa85f64-5717-4562-b3fc-2c963f66afa6",
        "name": "string",
        "email": "user@example.com"
      },
      "category": {
        "id": "3fa85f64-5717-4562-b3fc-2c963f66afa6",
        "name": "string"
      },
      "company": {
        "id": "3fa85f64-5717-4562-b3fc-2c963f66afa6",
        "name": "string"
      },
      "responses_count": 3,
      "attachments_count": 1,
      "created_at": "2025-11-16T10:30:00+00:00",
      "updated_at": "2025-11-16T10:30:00+00:00"
    }
  ],
  "meta": {
    "current_page": 1,
    "total": 45,
    "per_page": 15,
    "last_page": 3
  }
}
No links
401	
Unauthenticated (missing or invalid JWT token)

Media type

application/json
Example Value
Schema
{
  "message": "Unauthenticated"
}
No links

POST
/api/tickets
Create a new support ticket

Creates a new support ticket. Only users with USER role can create tickets. The ticket will be created with status "open" and a unique ticket_code (e.g., TKT-2025-00001) will be automatically generated. Requires JWT authentication with USER role.

Parameters
Try it out
No parameters

Request body

application/json
Example Value
Schema
{
  "title": "Error al exportar reporte mensual",
  "description": "Cuando intento exportar el reporte mensual de ventas, el sistema muestra un error 500. He intentado desde diferentes navegadores con el mismo resultado.",
  "company_id": "550e8400-e29b-41d4-a716-446655440000",
  "category_id": "9b8c7d6e-5f4a-3b2c-1d0e-9f8e7d6c5b4a"
}
Responses
Code	Description	Links
201	
Ticket created successfully

Media type

application/json
Controls Accept header.
Example Value
Schema
{
  "message": "Ticket creado exitosamente",
  "data": {
    "id": "7c9e6679-7425-40de-944b-e07fc1f90ae7",
    "ticket_code": "TKT-2025-00001",
    "company_id": "550e8400-e29b-41d4-a716-446655440000",
    "category_id": "9b8c7d6e-5f4a-3b2c-1d0e-9f8e7d6c5b4a",
    "created_by_user_id": "a1b2c3d4-e5f6-7890-abcd-ef1234567890",
    "owner_agent_id": null,
    "title": "Error al exportar reporte mensual",
    "description": "Cuando intento exportar el reporte mensual de ventas...",
    "status": "open",
    "last_response_author_type": "none",
    "resolved_at": null,
    "closed_at": null,
    "created_by_user": {
      "id": "3fa85f64-5717-4562-b3fc-2c963f66afa6",
      "name": "Juan Pérez",
      "email": "juan.perez@example.com"
    },
    "owner_agent": null,
    "company": {
      "id": "3fa85f64-5717-4562-b3fc-2c963f66afa6",
      "name": "Acme Corporation"
    },
    "category": {
      "id": "3fa85f64-5717-4562-b3fc-2c963f66afa6",
      "name": "Problemas Técnicos"
    },
    "responses_count": 0,
    "attachments_count": 0,
    "timeline": {
      "created_at": "2025-11-16T10:30:00+00:00",
      "first_response_at": null,
      "resolved_at": null,
      "closed_at": null
    },
    "created_at": "2025-11-16T10:30:00+00:00",
    "updated_at": "2025-11-16T10:30:00+00:00"
  }
}
No links
401	
Unauthenticated (missing or invalid JWT token)

Media type

application/json
Example Value
Schema
{
  "message": "Unauthenticated"
}
No links
403	
Forbidden (user does not have USER role)

Media type

application/json
Example Value
Schema
{
  "message": "This action is unauthorized."
}
No links
422	
Validation error

Media type

application/json
Example Value
Schema
{
  "message": "The title field is required.",
  "errors": {
    "title": [
      "The title field is required."
    ],
    "description": [
      "The description must be at least 10 characters."
    ],
    "company_id": [
      "The selected company id is invalid."
    ],
    "category_id": [
      "La categoría seleccionada no está activa."
    ]
  }
}
No links

GET
/api/tickets/{ticket}
Get a single ticket by ticket_code


DELETE
/api/tickets/{ticket}
Delete a ticket


PATCH
/api/tickets/{ticket}
Update a ticket
